SOURCE,DELAY,SEVERITY,CHECK,MANAGER,SERVICE,DESCRIPTION,TAGS
c-24a0d48a4e-121,1,4,ELB Connections,Splunk,Supply,Error 5xx request count > x 100 | c-23a0d48a4m-121,"cluster":"checkout-w-elb-01"
c-24a0d48a4e-121,1,4,5xx Errors,Datadog,Supply,aws.elb.httpcode_backend_5xx * 100 / request count > x per 1 min,"cluster":"checkout-w-elb-01"
